{
  "main": {
    "selectedInstance": "test",
    "type": "back4app",
    "dev": {
      "headers": {
        "X-Parse-Application-Id": "QXt7fp7YEXrgUmGJ5GZTnTmPXGNvOGZBfVYW1h9X",
        "X-Parse-Client-Key": "Hs8b03ZT4GnvcsOzVtkNno8OSSGVrh0JkIdefFxr"
      }
    },
    "test": {
      "headers": {
        "X-Parse-Application-Id": "MPzfLSZsSRKqkxnPhjTmliFgGLhM7Ai0veYG2EtO",
        "X-Parse-Client-Key": "lbmSTPMeamne2GPA2arpdgPcPuCSTepAtT4r46pe"
      }
    }
  }
}